HW5 - Make Data Move
…
We see an interesting spread with an outlier to the right. Answer the following questions, please:

Why does it make sense to have a log10 scale on x axis? # Answer= Because it is the default option for Rstudios/Rmarkdown

Who is the outlier (the richest country in 1952 - far right on x axis)? # Answer= Kuwait,see how we did below, we opened gapminder than piped it, so we could filter by year 1952. After that we asked R to arrange it by gdpPercap in descending order

gapminder %>% 
  filter(year == 1952) %>% 
  arrange(desc(gdpPercap))

## # A tibble: 142 x 6
##    country        continent  year lifeExp       pop gdpPercap
##    <fct>          <fct>     <int>   <dbl>     <int>     <dbl>
##  1 Kuwait         Asia       1952    55.6    160000   108382.
##  2 Switzerland    Europe     1952    69.6   4815000    14734.
##  3 United States  Americas   1952    68.4 157553000    13990.
##  4 Canada         Americas   1952    68.8  14785584    11367.
##  5 New Zealand    Oceania    1952    69.4   1994794    10557.
##  6 Norway         Europe     1952    72.7   3327728    10095.
##  7 Australia      Oceania    1952    69.1   8691212    10040.
##  8 United Kingdom Europe     1952    69.2  50430000     9980.
##  9 Bahrain        Asia       1952    50.9    120447     9867.
## 10 Denmark        Europe     1952    70.8   4334000     9692.
## # ... with 132 more rows
…
The black bubbles are a bit hard to read, the comparison would be easier with a bit more visual differentiation.

Tasks:

Differentiate the continents by color, and fix the axis labels and units to be more legible (Hint: the 2.50e+08 is so called scientific notation, which you might want to eliminate) # Answer= To arrange it by color, we copied the code above from line 72 to 76, than added the following (labs(title,fill, x & y)) and edited what they meant. We also deleted pop= size. You can see it in line 96 to 105

What are the five richest countries in the world in 2007? # Answer= Norway, Kuwait, Singapore, United States and Ireland, We did the same as in Question 2.

gapminder %>% 
  filter(year == 2007) %>% 
  arrange(desc(gdpPercap))

## # A tibble: 142 x 6
##    country          continent  year lifeExp       pop gdpPercap
##    <fct>            <fct>     <int>   <dbl>     <int>     <dbl>
##  1 Norway           Europe     2007    80.2   4627926    49357.
##  2 Kuwait           Asia       2007    77.6   2505559    47307.
##  3 Singapore        Asia       2007    80.0   4553009    47143.
##  4 United States    Americas   2007    78.2 301139947    42952.
##  5 Ireland          Europe     2007    78.9   4109086    40676.
##  6 Hong Kong, China Asia       2007    82.2   6980412    39725.
##  7 Switzerland      Europe     2007    81.7   7554661    37506.
##  8 Netherlands      Europe     2007    79.8  16570613    36798.
##  9 Canada           Americas   2007    80.7  33390141    36319.
## 10 Iceland          Europe     2007    81.8    301931    36181.
## # ... with 132 more rows
…
Answer= By using the code in the animation section of option 1, we simply added (lab:years {closest_state}) which means that the title will show years, and change the closest state/title after each animation. Check line 119 to 125

Can you made the axes labels and units more readable? Consider expanding the abreviated lables as well as the scientific notation in the legend and x axis to whole numbers.

Answer= We did the same as in question 3, and in the 119 to 125 lines we inserted what we did in question 3 and edited the labs. The scipen=999 commands means that the scientific notations are removed and the pop will now be shown as actual numbers.

Come up with a question you want to answer using the gapminder data and write it down. Then, create a data visualisation that answers the question and explain how your visualization answers the question. (Example: you wish to see what was mean life expectancy across the continents in the year you were born versus your parents birth years). [Hint: if you wish to have more data than is in the filtered gapminder, you can load either the gapminder_unfiltered dataset and download more at https://www.gapminder.org/data/ ]

Answer= I asked the question What was the 10 richest countries in 1997? The answer is: Norway, Kuwait, United States, Singapore, Switzerland, Netherlands, Denmark, Austria, Canada, Japan

gapminder %>% 
  filter(year == 1997) %>% 
  arrange(desc(gdpPercap))

## # A tibble: 142 x 6
##    country       continent  year lifeExp       pop gdpPercap
##    <fct>         <fct>     <int>   <dbl>     <int>     <dbl>
##  1 Norway        Europe     1997    78.3   4405672    41283.
##  2 Kuwait        Asia       1997    76.2   1765345    40301.
##  3 United States Americas   1997    76.8 272911760    35767.
##  4 Singapore     Asia       1997    77.2   3802309    33519.
##  5 Switzerland   Europe     1997    79.4   7193761    32135.
##  6 Netherlands   Europe     1997    78.0  15604464    30246.
##  7 Denmark       Europe     1997    76.1   5283663    29804.
##  8 Austria       Europe     1997    77.5   8069876    29096.
##  9 Canada        Americas   1997    78.6  30305843    28955.
## 10 Japan         Asia       1997    80.7 125956499    28817.
## # ... with 132 more rows
…
